{
  "project_info": {
    "project_number": "890342711241",
    "project_id": "grocery-app-1db91",
    "storage_bucket": "grocery-app-1db91.appspot.com"
  },
  "client": [
    {
      "client_info": {
        "mobilesdk_app_id": "1:890342711241:android:ae07fb90ed79f7b0c15218",
        "android_client_info": {
          "package_name": "com.groceryapp"
        }
      },
      "oauth_client": [
        {
          "client_id": "890342711241-duhlmvtvhsekcsj2kfln4mq36fal9r1g.apps.googleusercontent.com",
          "client_type": 3
        }
      ],
      "api_key": [
        {
          "current_key": "AIzaSyBaw-sJ9VAIrza8ll1m9jQ7a9gr1SEc7p0"
        }
      ],
      "services": {
        "appinvite_service": {
          "other_platform_oauth_client": [
            {
              "client_id": "890342711241-duhlmvtvhsekcsj2kfln4mq36fal9r1g.apps.googleusercontent.com",
              "client_type": 3
            }
          ]
        }
      }
    }
  ],
  "configuration_version": "1"
}